<svg version="1.1" id="Calque_1" xmlns="http://www.w3.org/2000/svg" xmlns:xlink="http://www.w3.org/1999/xlink" x="0px" y="0px"
	 viewBox="0 0 896 896" style="enable-background:new 0 0 896 896;" xml:space="preserve">
<path fill="currentColor" d="M643,128c-70.6,0-128,57.3-128,128c0,47.2,25.9,88.1,64,110.3V384c0,0,0,128-128,128c-53.1,0-94.7,11.4-128,28.8V238.3
	c38.2-22.2,64-63.1,64-110.3C387,57.3,329.7,0,259,0S131,57.3,131,128c0,47.2,25.8,88.1,64,110.3v419.5c-38.2,22.2-64,63-64,110.2
	c0,70.6,57.3,128,128,128s128-57.4,128-128c0-33.5-13.2-63.8-34.2-86.6c18.6-22.9,48.9-41.4,98.2-41.4c254,0,256-256,256-256v-17.7
	c38.1-22.2,64-63.1,64-110.3C771,185.3,713.6,128,643,128z M259,64c35.4,0,64,28.6,64,64s-28.6,64-64,64s-64-28.6-64-64
	S223.6,64,259,64z M259,832c-35.4,0-64-28.6-64-64c0-35.3,28.6-64,64-64s64,28.7,64,64C323,803.4,294.4,832,259,832z M643,320
	c-35.4,0-64-28.6-64-64s28.6-64,64-64s64,28.6,64,64S678.4,320,643,320z"/>
</svg>
